#:unix_secs,unix_nsecs,sysuptime,exaddr,dpkts,doctets,first,last,engine_type,engine_id,srcaddr,dstaddr,nexthop,input,output,srcport,dstport,prot,tos,tcp_flags,src_mask,dst_mask,src_as,dst_as
1591186837,856131,1846428,182.168.1.1,1,52,1793392,1793392,0,0,182.168.1.6,88.221.52.153,182.168.1.2,106,106,54874,443,6,0,16,0,0,0,0
1591186837,856131,1846428,182.168.1.1,1,1492,1793792,1793792,0,0,13.224.118.58,126.52.30.2,182.168.1.2,106,106,237,51890,6,32,16,0,0,0,0
1591186837,856131,1846428,182.168.1.1,1,52,1793780,1793780,0,0,182.168.1.6,13.224.118.58,182.168.1.2,106,106,51890,443,6,0,16,0,0,0,0
1591186837,856131,1846428,182.168.1.1,1,52,1793736,1793736,0,0,13.224.118.30,126.52.30.2,182.168.1.2,106,106,403,56708,6,0,16,0,0,0,0
1591186837,856131,1846428,182.168.1.1,3,4476,1793656,1793716,0,0,13.224.118.52,126.52.30.2,182.168.1.2,106,106,3,59094,6,32,16,0,0,0,0
1591186837,856131,1846428,182.168.1.1,1,1492,1794088,1794088,0,0,13.224.118.58,126.52.30.2,182.168.1.2,106,106,227,51912,6,32,16,0,0,0,0
1591186837,856131,1846428,182.168.1.1,1,60,1794448,1794448,0,0,182.168.1.6,216.58.201.132,182.168.1.2,106,106,57350,443,6,0,2,0,0,0,0
1591186837,856131,1846428,182.168.1.1,1,52,1794884,1794884,0,0,182.168.1.5,172.217.16.227,182.168.1.2,106,106,57364,443,6,0,16,0,0,0,0
1591186837,856131,1846428,182.168.1.1,3,7356,1795064,1795088,0,0,13.224.118.73,126.52.30.2,182.168.1.2,106,106,342,51900,6,0,16,0,0,0,0
1591186837,856131,1846428,182.168.1.1,1,52,1795232,1795232,0,0,182.168.1.7,13.224.118.73,182.168.1.2,106,106,51900,443,6,0,16,0,0,0,0
1591186837,856131,1846428,182.168.1.1,1,1470,1795636,1795636,0,0,172.217.16.227,126.52.30.2,182.168.1.2,106,106,283,40964,6,32,24,0,0,0,0
1591186837,856131,1846428,182.168.1.1,1,2888,1796476,1796476,0,0,216.58.201.131,126.52.30.2,182.168.1.2,106,106,225,58788,6,32,16,0,0,0,0
1591186837,856131,1846428,182.168.1.1,4,4462,1794684,1796856,0,0,172.217.16.227,126.52.30.2,182.168.1.2,106,106,371,57364,6,32,16,0,0,0,0
1591186837,856131,1846428,182.168.1.1,1,52,1797824,1797824,0,0,182.168.1.7,216.58.201.163,182.168.1.2,106,106,51228,443,6,0,16,0,0,0,0
1591186837,856131,1846428,182.168.1.1,1,52,1800164,1800164,0,0,172.217.16.226,126.52.30.2,182.168.1.2,106,106,214,41532,6,32,16,0,0,0,0
1591186837,856131,1846428,182.168.1.1,1,52,1805648,1805648,0,0,182.168.1.6,54.72.24.212,182.168.1.2,106,106,57550,443,6,0,16,0,0,0,0
1591186837,856131,1846428,182.168.1.1,1,52,1806092,1806092,0,0,182.168.1.5,13.224.118.65,182.168.1.2,106,106,42622,443,6,0,16,0,0,0,0
1591186837,856131,1846428,182.168.1.1,1,1492,1806252,1806252,0,0,13.224.118.65,126.52.30.2,182.168.1.2,106,106,369,42622,6,32,16,0,0,0,0
1591186837,856131,1846428,182.168.1.1,1,217,1806232,1806232,0,0,182.168.1.5,204.79.197.200,182.168.1.2,106,106,35604,443,6,0,24,0,0,0,0
1591186837,856131,1846428,182.168.1.1,1,1470,1806708,1806708,0,0,216.58.209.78,126.52.30.2,182.168.1.2,106,106,500,51990,6,32,16,0,0,0,0
1591186837,856131,1846428,182.168.1.1,1,60,1806956,1806956,0,0,182.168.1.5,31.13.83.36,182.168.1.2,106,106,37324,443,6,0,2,0,0,0,0
1591186837,856131,1846428,182.168.1.1,1,52,1807548,1807548,0,0,182.168.1.5,93.184.220.29,182.168.1.2,106,106,50778,80,6,0,16,0,0,0,0
1591186837,856131,1846428,182.168.1.1,1,1057,1808980,1808980,0,0,13.224.105.32,126.52.30.2,182.168.1.2,106,106,359,55100,6,0,24,0,0,0,0
1591186837,856131,1846428,182.168.1.1,1,52,1816320,1816320,0,0,182.168.1.7,13.224.118.125,182.168.1.2,106,106,50454,443,6,0,16,0,0,0,0
1591186869,616078,1878188,182.168.1.1,1,52,1835268,1835268,0,0,182.168.1.6,13.224.118.85,182.168.1.2,106,106,41348,443,6,0,16,0,0,0,0
1591186869,616078,1878188,182.168.1.1,1,80,1845544,1845544,0,0,182.168.1.3,182.168.1.5,0.0.0.0,65535,106,0,1281,1,192,0,0,0,0,0
1591186869,616078,1878188,182.168.1.1,1,52,1845544,1845544,0,0,182.168.1.5,172.217.16.227,182.168.1.2,106,106,35474,80,6,0,17,0,0,0,0
1591186869,616078,1878188,182.168.1.1,1,52,1848168,1848168,0,0,172.217.17.14,126.52.30.2,182.168.1.2,106,106,443,58956,6,32,17,0,0,0,0
1591186928,808089,1937380,182.168.1.1,1,253,1866932,1866932,0,0,182.168.1.7,172.217.16.226,182.168.1.2,106,106,41532,443,6,0,24,0,0,0,0
1591186928,808089,1937380,182.168.1.1,1,52,1872276,1872276,0,0,182.168.1.7,23.223.83.228,182.168.1.2,106,106,56222,443,6,0,16,0,0,0,0
1591186928,808089,1937380,182.168.1.1,1,2158,1872392,1872392,0,0,23.223.83.228,126.52.30.2,182.168.1.2,106,106,34,56222,6,0,24,0,0,0,0
1591186928,808089,1937380,182.168.1.1,1,52,1873000,1873000,0,0,182.168.1.7,216.58.209.66,182.168.1.2,106,106,58998,443,6,0,16,0,0,0,0
1591186928,808089,1937380,182.168.1.1,1,52,1888004,1888004,0,0,182.168.1.7,13.224.118.125,182.168.1.2,106,106,50452,443,6,0,16,0,0,0,0
1591186928,808089,1937380,182.168.1.1,1,71,1902416,1902416,0,0,182.168.1.7,104.22.24.160,182.168.1.2,106,106,54332,443,6,0,24,0,0,0,0
1591186928,808089,1937380,182.168.1.1,1,52,1902608,1902608,0,0,182.168.1.7,185.33.220.240,182.168.1.2,106,106,32872,443,6,0,16,0,0,0,0
1591186928,808089,1937380,182.168.1.1,1,148,1902912,1902912,0,0,68.232.35.16,126.52.30.2,182.168.1.2,106,106,425,43194,6,32,24,0,0,0,0
1591186928,808089,1937380,182.168.1.1,1,60,1903252,1903252,0,0,185.86.138.114,126.52.30.2,182.168.1.2,106,106,443,41722,6,0,18,0,0,0,0
1591186928,808089,1937380,182.168.1.1,1,1470,1903556,1903556,0,0,216.58.209.65,126.52.30.2,182.168.1.2,106,106,40,48248,6,32,16,0,0,0,0
1591186928,808089,1937380,182.168.1.1,1,52,1903724,1903724,0,0,182.168.1.7,198.148.27.140,182.168.1.2,106,106,38198,443,6,0,16,0,0,0,0
1591186928,808089,1937380,182.168.1.1,1,90,1903924,1903924,0,0,182.168.1.7,13.224.114.141,182.168.1.2,106,106,39250,443,6,0,24,0,0,0,0
1591186928,808089,1937380,182.168.1.1,1,116,1904060,1904060,0,0,182.168.1.7,216.58.201.161,182.168.1.2,106,106,53318,443,6,0,24,0,0,0,0
1591186928,808089,1937380,182.168.1.1,1,40,1905256,1905256,0,0,182.168.1.7,172.217.168.166,182.168.1.2,106,106,58422,443,6,32,4,0,0,0,0
1591186928,808089,1937380,182.168.1.1,1,52,1905520,1905520,0,0,182.168.1.7,151.101.134.114,182.168.1.2,106,106,55128,443,6,0,17,0,0,0,0
1591186928,808089,1937380,182.168.1.1,1,52,1905944,1905944,0,0,182.168.1.7,23.214.202.56,182.168.1.2,106,106,58600,443,6,0,16,0,0,0,0
1591186928,808089,1937380,182.168.1.1,1,52,1907264,1907264,0,0,182.168.1.7,69.16.175.10,182.168.1.2,106,106,49594,443,6,0,16,0,0,0,0
1591186928,808089,1937380,182.168.1.1,1,52,1907736,1907736,0,0,151.101.134.2,126.52.30.2,182.168.1.2,106,106,249,45714,6,0,16,0,0,0,0
1591186928,808089,1937380,182.168.1.1,1,1492,1910400,1910400,0,0,13.224.118.73,126.52.30.2,182.168.1.2,106,106,37,57884,6,0,16,0,0,0,0
1591186928,808089,1937380,182.168.1.1,3,4476,1910576,1910608,0,0,13.224.118.52,126.52.30.2,182.168.1.2,106,106,169,60002,6,0,16,0,0,0,0
1591186928,808089,1937380,182.168.1.1,1,52,1910612,1910612,0,0,182.168.1.5,13.224.118.52,182.168.1.2,106,106,60002,443,6,0,16,0,0,0,0
1591186928,808089,1937380,182.168.1.1,1,2888,1911528,1911528,0,0,172.217.17.14,126.52.30.2,182.168.1.2,106,106,482,49572,6,32,16,0,0,0,0
1591186928,808089,1937380,182.168.1.1,2,1522,1911028,1912520,0,0,216.58.201.163,126.52.30.2,182.168.1.2,106,106,236,38856,6,32,16,0,0,0,0
1591186928,808089,1937380,182.168.1.1,1,83,1912948,1912948,0,0,185.33.221.13,126.52.30.2,182.168.1.2,106,106,203,39544,6,0,24,0,0,0,0
1591186928,808089,1937380,182.168.1.1,1,52,1913348,1913348,0,0,182.168.1.6,13.224.118.58,182.168.1.2,106,106,52880,443,6,0,16,0,0,0,0
1591186928,808089,1937380,182.168.1.1,3,5916,1913312,1913360,0,0,13.224.118.58,126.52.30.2,182.168.1.2,106,106,282,52880,6,32,16,0,0,0,0
1591186928,808089,1937380,182.168.1.1,1,52,1913888,1913888,0,0,52.10.115.149,126.52.30.2,182.168.1.2,106,106,443,45068,6,0,17,0,0,0,0
1591186928,808089,1937380,182.168.1.1,2,104,1915176,1915608,0,0,182.168.1.6,172.217.17.3,182.168.1.2,106,106,60776,443,6,0,16,0,0,0,0
1591186928,808089,1937380,182.168.1.1,1,60,1922204,1922204,0,0,182.168.1.5,178.33.110.167,182.168.1.2,106,106,55048,443,6,0,2,0,0,0,0
1591186928,808089,1937380,182.168.1.1,1,2932,1922376,1922376,0,0,178.33.110.167,126.52.30.2,182.168.1.2,106,106,192,55036,6,0,24,0,0,0,0
1591186985,928093,1994500,182.168.1.1,1,60,1923536,1923536,0,0,188.165.50.109,126.52.30.2,182.168.1.2,106,106,443,46004,6,0,18,0,0,0,0
1591186985,928093,1994500,182.168.1.1,2,1544,1913524,1923752,0,0,13.224.118.125,126.52.30.2,182.168.1.2,106,106,181,60916,6,32,16,0,0,0,0
1591186985,928093,1994500,182.168.1.1,1,1492,1925280,1925280,0,0,178.33.110.167,126.52.30.2,182.168.1.2,106,106,237,36328,6,24,16,0,0,0,0
1591186985,928093,1994500,182.168.1.1,1,994,1925204,1925204,0,0,178.33.110.167,126.52.30.2,182.168.1.2,106,106,34,36342,6,24,24,0,0,0,0
1591186985,928093,1994500,182.168.1.1,1,52,1925836,1925836,0,0,182.168.1.7,172.217.168.162,182.168.1.2,106,106,38690,443,6,0,16,0,0,0,0
1591186985,928093,1994500,182.168.1.1,1,52,1926404,1926404,0,0,216.58.211.40,126.52.30.2,182.168.1.2,106,106,442,54502,6,32,16,0,0,0,0
1591186985,928093,1994500,182.168.1.1,1,52,1926588,1926588,0,0,182.168.1.6,84.53.132.24,182.168.1.2,106,106,55066,443,6,0,16,0,0,0,0
1591186985,928093,1994500,182.168.1.1,1,90,1927320,1927320,0,0,23.214.202.56,126.52.30.2,182.168.1.2,106,106,25,58600,6,0,24,0,0,0,0
1591186985,928093,1994500,182.168.1.1,1,1161,1931684,1931684,0,0,182.168.1.7,216.58.201.174,182.168.1.2,106,106,40184,443,6,0,24,0,0,0,0
1591186985,928093,1994500,182.168.1.1,1,323,1935828,1935828,0,0,182.168.1.7,178.250.0.165,182.168.1.2,106,106,50594,443,6,0,24,0,0,0,0
1591186985,928093,1994500,182.168.1.1,1,52,1937356,1937356,0,0,182.168.1.7,216.58.201.161,182.168.1.2,106,106,53274,443,6,0,16,0,0,0,0
1591186985,928093,1994500,182.168.1.1,18,2773,1940396,1940424,0,0,182.168.1.2,182.168.1.3,0.0.0.0,106,65535,46126,22,6,0,26,0,0,0,0
1591186985,928093,1994500,182.168.1.1,6,484,1940424,1940432,0,0,182.168.1.2,182.168.1.3,0.0.0.0,106,65535,46126,22,6,8,25,0,0,0,0
1591186985,928093,1994500,182.168.1.1,18,3185,1940396,1940424,0,0,182.168.1.3,182.168.1.2,0.0.0.0,65535,106,22,46126,6,0,26,0,0,0,0
1591186985,928093,1994500,182.168.1.1,4,456,1940428,1940432,0,0,182.168.1.3,182.168.1.2,0.0.0.0,65535,106,22,46126,6,8,25,0,0,0,0
1591186985,928093,1994500,182.168.1.1,1,222,1948024,1948024,0,0,182.168.1.7,23.210.44.13,182.168.1.2,106,106,39822,443,6,0,24,0,0,0,0
1591186985,928093,1994500,182.168.1.1,1,1562,1951020,1951020,0,0,182.168.1.7,23.223.83.228,182.168.1.2,106,106,56222,443,6,0,24,0,0,0,0
1591186985,928093,1994500,182.168.1.1,1,52,1951580,1951580,0,0,182.168.1.7,151.101.134.133,182.168.1.2,106,106,34858,443,6,0,16,0,0,0,0
1591186985,928093,1994500,182.168.1.1,1,52,1952216,1952216,0,0,182.168.1.7,185.86.138.122,182.168.1.2,106,106,45484,443,6,0,16,0,0,0,0
1591186985,928093,1994500,182.168.1.1,1,1492,1952988,1952988,0,0,23.214.202.56,126.52.30.2,182.168.1.2,106,106,25,58600,6,0,16,0,0,0,0
1591186985,928093,1994500,182.168.1.1,1,91,1955516,1955516,0,0,159.69.72.190,126.52.30.2,182.168.1.2,106,106,337,32802,6,0,24,0,0,0,0
1591186985,928093,1994500,182.168.1.1,1,52,1958640,1958640,0,0,182.168.1.7,216.58.201.161,182.168.1.2,106,106,53274,443,6,0,16,0,0,0,0
1591186985,928093,1994500,182.168.1.1,1,1470,1959800,1959800,0,0,172.217.16.225,126.52.30.2,182.168.1.2,106,106,35,35022,6,32,24,0,0,0,0
1591186985,928093,1994500,182.168.1.1,1,52,1962740,1962740,0,0,182.168.1.7,13.224.114.141,182.168.1.2,106,106,39250,443,6,0,16,0,0,0,0
1591186985,928093,1994500,182.168.1.1,1,40,1967956,1967956,0,0,37.252.173.38,126.52.30.2,182.168.1.2,106,106,443,40552,6,0,4,0,0,0,0
1591186985,928093,1994500,182.168.1.1,1,61,1974032,1974032,0,0,182.168.1.7,80.58.61.250,182.168.1.2,106,106,44476,53,17,0,0,0,0,0,0
1591186985,928093,1994500,182.168.1.1,1,52,1978200,1978200,0,0,182.168.1.7,178.250.0.162,182.168.1.2,106,106,46778,443,6,0,16,0,0,0,0
1591186985,928093,1994500,182.168.1.1,1,68,1978748,1978748,0,0,182.168.1.3,182.168.1.6,0.0.0.0,65535,106,0,1281,1,192,0,0,0,0,0
1591186985,928093,1994500,182.168.1.1,1,40,1978748,1978748,0,0,182.168.1.6,84.53.132.11,182.168.1.2,106,106,33038,443,6,0,4,0,0,0,0
1591186985,928093,1994500,182.168.1.1,1,52,1979440,1979440,0,0,182.168.1.7,23.214.202.56,182.168.1.2,106,106,58600,443,6,0,16,0,0,0,0
1591187051,548046,2060120,182.168.1.1,1,52,1979768,1979768,0,0,182.168.1.7,66.155.71.25,182.168.1.2,106,106,49882,443,6,0,16,0,0,0,0
1591187051,548046,2060120,182.168.1.1,1,52,1980332,1980332,0,0,172.217.17.2,126.52.30.2,182.168.1.2,106,106,313,52260,6,32,16,0,0,0,0
1591187051,548046,2060120,182.168.1.1,1,372,1983704,1983704,0,0,182.168.1.7,178.250.0.165,182.168.1.2,106,106,50594,443,6,0,24,0,0,0,0
1591187051,548046,2060120,182.168.1.1,1,52,1984628,1984628,0,0,182.168.1.7,216.58.201.161,182.168.1.2,106,106,53274,443,6,0,16,0,0,0,0
1591187051,548046,2060120,182.168.1.1,1,2888,1985596,1985596,0,0,216.58.201.161,126.52.30.2,182.168.1.2,106,106,374,53274,6,32,16,0,0,0,0
1591187051,548046,2060120,182.168.1.1,1,1492,1986348,1986348,0,0,13.33.237.73,126.52.30.2,182.168.1.2,106,106,463,43924,6,32,16,0,0,0,0
1591187051,548046,2060120,182.168.1.1,18,2773,1990076,1990148,0,0,182.168.1.3,182.168.1.2,0.0.0.0,65535,106,59676,22,6,0,26,0,0,0,0
1591187051,548046,2060120,182.168.1.1,8,624,1990148,1990148,0,0,182.168.1.3,182.168.1.2,0.0.0.0,65535,106,59676,22,6,8,25,0,0,0,0
1591187051,548046,2060120,182.168.1.1,5,456,1990148,1990148,0,0,182.168.1.2,182.168.1.3,0.0.0.0,106,65535,22,59676,6,8,25,0,0,0,0
1591187051,548046,2060120,182.168.1.1,18,3185,1990076,1990148,0,0,182.168.1.2,182.168.1.3,0.0.0.0,106,65535,22,59676,6,0,26,0,0,0,0
1591187051,548046,2060120,182.168.1.1,1,67,1993692,1993692,0,0,182.168.1.7,80.58.61.250,182.168.1.2,106,106,52808,53,17,0,0,0,0,0,0
1591187051,548046,2060120,182.168.1.1,1,1492,2000768,2000768,0,0,92.122.44.175,126.52.30.2,182.168.1.2,106,106,350,55264,6,0,16,0,0,0,0
1591187051,548046,2060120,182.168.1.1,1,52,2004324,2004324,0,0,23.223.83.228,126.52.30.2,182.168.1.2,106,106,34,56222,6,0,16,0,0,0,0
1591187051,548046,2060120,182.168.1.1,1,1470,2005072,2005072,0,0,172.217.168.162,126.52.30.2,182.168.1.2,106,106,362,38690,6,32,16,0,0,0,0
1591187051,548046,2060120,182.168.1.1,1,64,2005524,2005524,0,0,182.168.1.7,23.214.202.56,182.168.1.2,106,106,58600,443,6,0,16,0,0,0,0
1591187051,548046,2060120,182.168.1.1,1,975,2005884,2005884,0,0,52.211.136.207,126.52.30.2,182.168.1.2,106,106,228,53904,6,32,24,0,0,0,0
1591187051,548046,2060120,182.168.1.1,1,5457,2007484,2007484,0,0,151.101.134.2,126.52.30.2,182.168.1.2,106,106,249,45714,6,0,24,0,0,0,0
1591187051,548046,2060120,182.168.1.1,1,52,2010896,2010896,0,0,182.168.1.7,66.155.71.25,182.168.1.2,106,106,50008,443,6,0,16,0,0,0,0
1591187051,548046,2060120,182.168.1.1,1,52,2015564,2015564,0,0,182.168.1.7,216.58.211.238,182.168.1.2,106,106,39802,443,6,0,16,0,0,0,0
1591187051,548046,2060120,182.168.1.1,1,52,2019808,2019808,0,0,182.168.1.7,185.86.139.29,182.168.1.2,106,106,43858,443,6,0,16,0,0,0,0
1591187051,548046,2060120,182.168.1.1,1,52,2019864,2019864,0,0,182.168.1.7,23.223.83.228,182.168.1.2,106,106,56222,443,6,0,16,0,0,0,0
1591187051,548046,2060120,182.168.1.1,1,1470,2020448,2020448,0,0,172.217.168.162,126.52.30.2,182.168.1.2,106,106,362,38690,6,32,16,0,0,0,0
1591187051,548046,2060120,182.168.1.1,1,1470,2021204,2021204,0,0,216.58.201.161,126.52.30.2,182.168.1.2,106,106,374,53274,6,32,16,0,0,0,0
1591187051,548046,2060120,182.168.1.1,1,52,2030044,2030044,0,0,182.168.1.7,185.33.221.13,182.168.1.2,106,106,40574,443,6,0,17,0,0,0,0
1591187075,772553,2084344,182.168.1.1,1,52,2046332,2046332,0,0,216.58.209.66,126.52.30.2,182.168.1.2,106,106,73,58998,6,32,16,0,0,0,0
1591187075,772553,2084344,182.168.1.1,1,52,2046904,2046904,0,0,182.168.1.7,178.250.6.3,182.168.1.2,106,106,43742,443,6,0,16,0,0,0,0
1591187075,772553,2084344,182.168.1.1,1,52,2047692,2047692,0,0,182.168.1.7,23.214.202.56,182.168.1.2,106,106,58600,443,6,0,16,0,0,0,0
1591187075,772553,2084344,182.168.1.1,1,40,2048008,2048008,0,0,50.31.142.31,126.52.30.2,182.168.1.2,106,106,443,33388,6,0,4,0,0,0,0
1591187075,772553,2084344,182.168.1.1,1,40,2048936,2048936,0,0,182.168.1.7,50.31.142.95,182.168.1.2,106,106,36974,443,6,0,4,0,0,0,0
1591187075,772553,2084344,182.168.1.1,18,2773,2050168,2050244,0,0,182.168.1.3,182.168.1.2,0.0.0.0,65535,106,59868,22,6,0,26,0,0,0,0
1591187075,772553,2084344,182.168.1.1,4,404,2050244,2050244,0,0,182.168.1.2,182.168.1.3,0.0.0.0,106,65535,22,59868,6,8,25,0,0,0,0
1591187075,772553,2084344,182.168.1.1,8,624,2050244,2050244,0,0,182.168.1.3,182.168.1.2,0.0.0.0,65535,106,59868,22,6,8,25,0,0,0,0
1591187075,772553,2084344,182.168.1.1,17,3133,2050168,2050244,0,0,182.168.1.2,182.168.1.3,0.0.0.0,106,65535,22,59868,6,0,26,0,0,0,0
1591187075,772553,2084344,182.168.1.1,1,1492,2052104,2052104,0,0,23.223.83.228,126.52.30.2,182.168.1.2,106,106,34,56222,6,0,16,0,0,0,0
1591187075,772553,2084344,182.168.1.1,1,220,2053024,2053024,0,0,172.217.16.226,126.52.30.2,182.168.1.2,106,106,410,41536,6,32,24,0,0,0,0
1591187075,772553,2084344,182.168.1.1,1,1470,2053816,2053816,0,0,216.58.201.161,126.52.30.2,182.168.1.2,106,106,374,53274,6,32,16,0,0,0,0
1591187075,772553,2084344,182.168.1.1,1,1470,2054268,2054268,0,0,172.217.168.162,126.52.30.2,182.168.1.2,106,106,362,38690,6,32,16,0,0,0,0
